Data Analysis Project: Expanded Analysis
…
# Load overall and unsheltered PIT data for Philadelphia between 2007 and 2018
philadelphia_coc_pit_07_18 <- read_excel("data/philadelphia_coc_pit_07_18.xlsx")

Calculating Pills Per State and County

How many opioid pills were shipped to each state between 2006 and 2012? And where does Pennsylvania rank on the list?

# Group by buyer state, summarize the total pills each received and rank descending
arcos_buyer_yearly %>%
  group_by(buyer_state) %>%
  summarise(total_pills = sum(dosage_unit) 
    ) %>%
  arrange(desc(total_pills))

## # A tibble: 58 x 2
##    buyer_state total_pills
##    <chr>             <dbl>
##  1 CA          8057291423.
##  2 FL          5558242471.
##  3 TX          5432135664.
##  4 OH          3397984780.
##  5 NY          3338304694.
##  6 PA          3088637076.
##  7 MI          2852578277 
##  8 NC          2552612398.
##  9 TN          2519779525.
## 10 GA          2270981867.
## #  with 48 more rows

# Pennsylvania received 3,088,637,076 pills during the years tracked in the AROCS database, ranking sixth among all states in the U.S. The state's total came in behind California, Florida, Texas, Ohio and New York.

How many pills per shipment did each state receive? And where did Pennsylvania rank?

# Group by buyer state, summarize the totals pills per shipment and rank descending
arcos_buyer_yearly %>%
  group_by(buyer_state) %>%
  summarise(shipments = n(),
            total_pills = sum(dosage_unit), 
            avg_pills_per_shipment = mean(dosage_unit)
            ) %>%
  arrange(desc(avg_pills_per_shipment))

## # A tibble: 58 x 4
##    buyer_state shipments total_pills avg_pills_per_shipment
##    <chr>           <int>       <dbl>                  <dbl>
##  1 KY               8973 1901662933.                211932.
##  2 NV               4739 1002583755                 211560.
##  3 SC               9424 1832404651.                194440.
##  4 WV               4552  853490268.                187498.
##  5 NM               2894  522109039                 180411.
##  6 OR               7449 1336351877                 179400.
##  7 OK               8003 1403265597.                175342.
##  8 DE               1628  276177276                 169642.
##  9 IN              12616 2123679139                 168332.
## 10 KS               5272  875161421                 166002.
## #  with 48 more rows

# While Pennsylvania ranked near the top of the list of states in terms of total pills received, it ranked 31st in average pills per shipment -- 116,649.18. Even though it received a large number of pills between 2006 and 2012, the shipments weren't as massive on average compared to many other states.

When looking only at Pennsylvania counties, where does Philadelphia rank in terms of total pills received between 2006 and 2012?

# Group by buyer county, filter for Pennsylvania counties only, summarize total pills and arrange descending
arcos_buyer_yearly %>%
  group_by(buyer_county) %>%
  filter(buyer_state == "PA") %>%
  summarise(total_pills = sum(dosage_unit) 
    ) %>%
  arrange(desc(total_pills))

## # A tibble: 67 x 2
##    buyer_county total_pills
##    <chr>              <dbl>
##  1 PHILADELPHIA  394047551 
##  2 ALLEGHENY     338716252.
##  3 MONTGOMERY    193652578 
##  4 BUCKS         165738590.
##  5 DELAWARE      164134934 
##  6 LANCASTER     101334233 
##  7 WESTMORELAND   99918295 
##  8 LUZERNE        91137991 
##  9 YORK           81408034.
## 10 LACKAWANNA     79029884 
## #  with 57 more rows
# Philadelphia received the most pills out of all Pennsylvania counties: 394,047,551. The next-highest -- Allegheny -- received 338,716,252, followed by Montgomery County with 193,652,578.    

Where does Phildelphia rank in terms of pills per shipment?

# Group by buyer county, filter for Pennsylvania counties only, summarize average pills per shipment and arrange descending
arcos_buyer_yearly %>%
  group_by(buyer_county) %>%
  filter(buyer_state == "PA") %>%
  summarise(shipments = n(),
            total_pills = sum(dosage_unit), 
            avg_pills_per_shipment = mean(dosage_unit)
            ) %>%
  arrange(desc(avg_pills_per_shipment))

## # A tibble: 67 x 4
##    buyer_county shipments total_pills avg_pills_per_shipment
##    <chr>            <int>       <dbl>                  <dbl>
##  1 CAMBRIA            319    62327100                195383.
##  2 CARBON             123    19951456                162207.
##  3 FAYETTE            383    58339550                152323.
##  4 CLINTON             68    10309060                151604.
##  5 LAWRENCE           215    32474100                151042.
##  6 WAYNE               96    13884070                144626.
##  7 MONROE             305    43803659                143619.
##  8 SCHUYLKILL         278    39413590                141776.
##  9 ERIE               539    76283755                141528.
## 10 POTTER              29     4101610                141435.
## #  with 57 more rows
…
# Philadelphia received a massive number of pills during the period tracked by the ARCOS database -- almost 70 million by 2012. The number of pills per year steadily increased over this seven-year span. Seeing the change over time prompts many questions to look into further: Was no one catching on to how extreme the opioid epidemic was in the city during this time? Did any pharmacies get in trouble? 

Calculating Pills Per Person

Which state received the highest rate of pills per person? Where does Pennsylvania rank?

# Join buyer_totals and state_population_per_year and calculate the rate of pills per person
buyer_totals %>%
  inner_join(state_population_per_year, by="buyer_state") %>%
  group_by(buyer_state, population_average) %>% 
  summarise(total_pills_by_state = sum(total_pills)) %>%
  mutate(rate = total_pills_by_state/population_average) %>%
  arrange(desc(rate))

## # A tibble: 51 x 4
## # Groups:   buyer_state [51]
##    buyer_state population_average total_pills_by_state  rate
##    <chr>                    <dbl>                <dbl> <dbl>
##  1 WV                     1835903           853490268.  465.
##  2 KY                     4279971          1901662933.  444.
##  3 SC                     4495067          1832404651.  408.
##  4 TN                     6222433          2519779525.  405.
##  5 OK                     3663764          1403265597.  383.
##  6 NV                     2619151          1002583755   383.
##  7 AL                     4698683          1703753240.  363.
##  8 OR                     3755715          1336351877   356.
##  9 IN                     6405249          2123679139   332.
## 10 DE                      878712           276177276   314.
## #  with 41 more rows
…
# Filtering for the Kensington zip code yielded 12 entries of buyers. Four were chain pharmacies, four were retail pharmacies and four were practitioners. The CVS Pharmacy located on Aramingo Ave. received the most pills during the seven years tracked -- 2,775,450. The Caring Pharmacy on Kensington Ave. received 934,810 pills, the next-highest number.

How many of these buyers purchased pills every year tracked in the ARCOS database? Which other ones only made purchases in a few years?

# Join kensington and buyer_annual_by_year to see year-by-year breakdown
kensington_annual <- kensington %>%
  right_join(buyer_annual_by_year, by="buyer_dea_no") %>%
  filter(buyer_zip == "19125", buyer_city == "PHILADELPHIA") %>%
  arrange(desc(total_pills)) %>%
  print(kensington_annual)

## # A tibble: 51 x 19
##    buyer_dea_no buyer_bus_act.x buyer_name buyer_address1 buyer_city
##    <chr>        <chr>           <chr>      <chr>          <chr>     
##  1 BC5665798    CHAIN PHARMACY  PENNSYLVA 2400 ARAMINGO PHILADELP
##  2 BC5665798    CHAIN PHARMACY  PENNSYLVA 2400 ARAMINGO PHILADELP
##  3 BC5665798    CHAIN PHARMACY  PENNSYLVA 2400 ARAMINGO PHILADELP
##  4 BC5665798    CHAIN PHARMACY  PENNSYLVA 2400 ARAMINGO PHILADELP
##  5 BC5665798    CHAIN PHARMACY  PENNSYLVA 2400 ARAMINGO PHILADELP
##  6 BC5665798    CHAIN PHARMACY  PENNSYLVA 2400 ARAMINGO PHILADELP
##  7 BC5665798    CHAIN PHARMACY  PENNSYLVA 2400 ARAMINGO PHILADELP
##  8 BC9114581    RETAIL PHARMACY CARING PH 2541 KENSINGT PHILADELP
##  9 BC9114581    RETAIL PHARMACY CARING PH 2541 KENSINGT PHILADELP
## 10 BC9114581    RETAIL PHARMACY CARING PH 2541 KENSINGT PHILADELP
## #  with 41 more rows, and 14 more variables: buyer_state.x <chr>,
## #   buyer_zip <dbl>, buyer_county.x <chr>, buyer_addl_co_info <chr>,
## #   buyer_address2 <chr>, buyer_bus_act.y <chr>, buyer_county.y <chr>,
## #   buyer_state.y <chr>, total_pills <dbl>, buyer_bus_act <chr>,
## #   buyer_county <chr>, buyer_state <chr>, year <dbl>, dosage_unit <dbl>
…
# Inner join of crosswalk_GEOID and tract_pills
coc_tract_pills <- crosswalk_GEOID %>%
  inner_join(tract_pills, by=("GEOID")) %>%
  select(coc_code, coc_name, state_code, GEOID, year, total_pills, total_2010_population)

# Summarize by total pills and arrange descending
coc_tract_pills %>%
  group_by(coc_name) %>%
  summarise(total_pills = sum(total_pills)) %>%
  arrange(desc(total_pills))

## # A tibble: 394 x 2
##    coc_name                                                     total_pills
##    <chr>                                                              <dbl>
##  1 texas balance of state coc                                    2140839470
##  2 indiana balance of state coc                                  1782095593
##  3 houston, pasadena, conroe/harris, fort bend, montgomery cou  1273660152
##  4 phoenix, mesa/maricopa county coc                              917803728
##  5 new york city coc                                              827885701
##  6 wisconsin balance of state coc                                 811176113
##  7 las vegas/clark county coc                                     723796959
##  8 michigan balance of state coc                                  683612549
##  9 dallas city & county, irving coc                               611126430
## 10 nassau, suffolk counties coc                                   605499431
## #  with 384 more rows
…
# Inner join the number of pills and the population for each CoC in 2010
pills_population_2010 <- coc_pills_2010 %>%
  inner_join(population_2010, by=("coc_name")) %>%
  select(coc_name, state_code, total_pills, total_population)

# Calculate the rate of pills per person in each CoC for 2010
pills_population_2010 %>%
  mutate(rate = total_pills/total_population) %>%
  arrange(desc(rate))

## # A tibble: 394 x 5
## # Groups:   coc_name [394]
##    coc_name                   state_code total_pills total_population  rate
##    <chr>                      <chr>            <dbl>            <dbl> <dbl>
##  1 chico, paradise/butte cou ca            19574960            88948  220.
##  2 lake county coc            ca             6989990            37419  187.
##  3 tehama county coc          ca             4463060            24536  182.
##  4 murfreesboro/rutherford c tn            25909930           146766  177.
##  5 redding/shasta, siskiyou, ca            28427000           161090  176.
##  6 upper cumberland coc       tn            45020800           264400  170.
##  7 morristown/blount, sevier tn            53180546           322003  165.
##  8 huntington/cabell, wayne  wv            11752180            73426  160.
##  9 mendocino county coc       ca             5687360            36617  155.
## 10 appalachian regional coc   tn            39611020           261867  151.
## #  with 384 more rows
…
# Philadelphia's CoC again ranked near the bottom of the pack in terms of rate when compared to other Pennsylvania CoCs. It placed 10th out of 15 with complete pill and population data.

How many people overall are experiencing homelessness in the Philadelphia CoCs jurisdiction compared to its peers nationwide?

# Arrange the 2010 PIT count data descending by total people counted
pit_count_by_coc_2010 %>%
  arrange(desc(overall_2010_homeless))

## # A tibble: 392 x 5
##    coc_number coc_name   overall_2010_ho sheltered_2010_ unsheltered_201
##    <chr>      <chr>                 <dbl>            <dbl>            <dbl>
##  1 ny-600     new york             53187            50076             3111
##  2 ca-600     los angel            33243            14050            19193
##  3 tx-607     texas bal            14827             4366            10461
##  4 nv-500     las vegas             9949             7004             2945
##  5 ga-501     georgia b             9750             1943             7807
##  6 wa-500     seattle/k             9022             6222             2800
##  7 or-505     oregon ba             8814             2606             6208
##  8 co-503     metropoli             8752             7053             1699
##  9 la-503     new orlea             8725             1340             7385
## 10 ca-601     san diego             8383             3918             4465
## #  with 382 more rows
…
What was the rate of homelessness in Philadelphia in 2010 when comparing the homeless number to the total population? How does this rate compare to other CoCs?

# Inner join the 2010 population and PIT data
population_pit_2010 <- pit_count_by_coc_2010 %>%
  inner_join(population_2010, by=("coc_name")) %>%
  select(coc_name, overall_2010_homeless, sheltered_2010_homeless, unsheltered_2010_homeless, total_population)

# Calclulate the homeleness rate of the total population by CoC
population_pit_2010 %>%
  mutate(rate = overall_2010_homeless/total_population)%>%
  select(coc_name, overall_2010_homeless, total_population, rate) %>%
  arrange(desc(rate))

## # A tibble: 367 x 4
##    coc_name                      overall_2010_home total_population   rate
##    <chr>                                      <dbl>            <dbl>  <dbl>
##  1 atlanta coc                                 7019           202020 0.0347
##  2 mendocino county coc                        1202            36617 0.0328
##  3 hendry, hardee, highlands co               4220           136154 0.0310
##  4 monroe county coc                           1040            35368 0.0294
##  5 san luis obispo county coc                  3829           150520 0.0254
##  6 district of columbia coc                    6539           285361 0.0229
##  7 cambridge coc                                559            27705 0.0202
##  8 fort walton beach/okaloosa,                2262           115392 0.0196
##  9 pasco county coc                            4527           234708 0.0193
## 10 long beach coc                              3909           217298 0.0180
## #  with 357 more rows

# Atlanta saw the highest homeless rate in 2010: 0.035. Philadelphia ranked 54th among 301 CoCs that had homeless and population data with which to calculate a rate. The CoC's rate was 0.0066.

How many unsheltered homeless were counted in Philadelphia? How does that compare to the numbers seen in PIT counts nationwide?

# Arrange descending by unsheltered homeless 
pit_count_by_coc_2010 %>%
  arrange(desc(unsheltered_2010_homeless))

## # A tibble: 392 x 5
##    coc_number coc_name   overall_2010_ho sheltered_2010_ unsheltered_201
##    <chr>      <chr>                 <dbl>            <dbl>            <dbl>
##  1 ca-600     los angel            33243            14050            19193
##  2 tx-607     texas bal            14827             4366            10461
##  3 ga-501     georgia b             9750             1943             7807
##  4 la-503     new orlea             8725             1340             7385
##  5 fl-501     tampa/hil             7473              726             6747
##  6 or-505     oregon ba             8814             2606             6208
##  7 ca-602     santa ana             8333             2609             5724
##  8 ca-500     san jose/             7086             2103             4983
##  9 ca-601     san diego             8383             3918             4465
## 10 co-500     colorado              5267             1087             4180
## #  with 382 more rows

# Philadelphia ranked 101st out of 392 CoCs in terms of unsheltered homeless count. It counted 481 people on its streets in 2010. Los Angeles saw the highest number of unsheltered homeless during its count that year: 19,193. Unsheltered homelessness paints the clearest, most visible picture of the issue since individuals experiencing it are easily counted on the street. They encompass the picture of homelessness that many people think of when they consider the issue -- which is what the one-night snapshot of the Point-in-Time count aims to capture.

What was the rate of unsheltered homelessness in Philadelphia in 2010 when comparing the unsheltered number to the total population? How does this rate compare to other CoCs?

# Calculate rate of unsheltered homeless
population_pit_2010 %>%
  mutate(rate = unsheltered_2010_homeless/total_population)%>%
  select(coc_name, unsheltered_2010_homeless, total_population, rate) %>%
  arrange(desc(rate))

## # A tibble: 367 x 4
##    coc_name                     unsheltered_2010_h total_population   rate
##    <chr>                                      <dbl>            <dbl>  <dbl>
##  1 hendry, hardee, highlands c                4119           136154 0.0303
##  2 mendocino county coc                         967            36617 0.0264
##  3 san luis obispo county coc                  3587           150520 0.0238
##  4 monroe county coc                            716            35368 0.0202
##  5 fort walton beach/okaloosa,                1791           115392 0.0155
##  6 humboldt county coc                         1000            76173 0.0131
##  7 columbia, hamilton, lafayet                 949            77998 0.0122
##  8 pasco county coc                            2853           234708 0.0122
##  9 watsonville/santa cruz city                1536           133615 0.0115
## 10 atlanta coc                                 2164           202020 0.0107
## #  with 357 more rows

# Philadelphia ranked 156th among 301 CoCs that had complete homeless and population data with an unsheltered rate of 0.0052. Hendry, Hardee and Highlands Counties CoC in Florida took the top spot with a rate of 0.0302. 

How many sheltered homeless were counted in Philadelphia? How does that compare to the numbers seen in PIT counts nationwide?

# Arrange descending by sheltered homeless 
pit_count_by_coc_2010 %>%
  arrange(desc(sheltered_2010_homeless))

## # A tibble: 392 x 5
##    coc_number coc_name   overall_2010_ho sheltered_2010_ unsheltered_201
##    <chr>      <chr>                 <dbl>            <dbl>            <dbl>
##  1 ny-600     new york             53187            50076             3111
##  2 ca-600     los angel            33243            14050            19193
##  3 co-503     metropoli             8752             7053             1699
##  4 nv-500     las vegas             9949             7004             2945
##  5 wa-500     seattle/k             9022             6222             2800
##  6 dc-500     district              6539             6109              430
##  7 pa-500     philadelp             6084             5603              481
##  8 il-510     chicago c             6240             5356              884
##  9 wa-501     washingto             7685             5262             2423
## 10 ma-500     boston coc             5139             4884              255
## #  with 382 more rows
…
