Data Analysis Project: Final Analysis
…
Calculate Pills-Per-Person Rate by CoC

# Calculate the rate of pills per person shipped to each CoC and arrange descending
pills_population_coc_2010 %>%
  mutate(pills_per_person = total_pills_2010/total_2010_population) %>%
  select(coc_code, coc_name, pills_per_person) %>%
  arrange(desc(pills_per_person))

## # A tibble: 394 x 3
##    coc_code coc_name                                       pills_per_person
##    <chr>    <chr>                                                     <dbl>
##  1 ca-529   lake county coc                                           108. 
##  2 tn-510   murfreesboro/rutherford county coc                         98.7
##  3 ca-516   redding/shasta, siskiyou, lassen, plumas, del             89.2
##  4 ca-519   chico, paradise/butte county coc                           89.0
##  5 wv-501   huntington/cabell, wayne counties coc                      84.7
##  6 tn-506   upper cumberland coc                                       82.3
##  7 tn-512   morristown/blount, sevier, campbell, cocke co             82.0
##  8 fl-501   tampa/hillsborough county coc                              80.3
##  9 tn-509   appalachian regional coc                                   78.2
## 10 ca-522   humboldt county coc                                        77.9
## #  with 384 more rows

# In 2010, the Lake County CoC of California had the highest rate: 108.1 pills per person. California and Tennessee both appear four times in the top 10 on this ranking. 

# Philadelphia ranks 182nd out of 394 for its pills-per-person rate, 39.34. 

# Calculate the rate of pills per person shipped to each CoC and arrange ascending
pills_population_coc_2010 %>%
  mutate(pills_per_person = total_pills_2010/total_2010_population) %>%
  select(coc_code, coc_name, pills_per_person) %>%
  arrange(pills_per_person)

## # A tibble: 394 x 3
##    coc_code coc_name                               pills_per_person
##    <chr>    <chr>                                             <dbl>
##  1 va-600   arlington county coc                               8.92
##  2 il-510   chicago coc                                       12.5 
##  3 ca-612   glendale coc                                      13.4 
##  4 va-603   alexandria coc                                    14.4 
##  5 dc-500   district of columbia coc                          14.5 
##  6 il-517   aurora, elgin/kane county coc                     15.3 
##  7 nc-513   chapel hill/orange county coc                     15.4 
##  8 nj-506   jersey city, bayonne/hudson county coc            15.7 
##  9 ny-600   new york city coc                                 15.8 
## 10 fl-600   miami-dade county coc                             15.8 
## #  with 384 more rows
…
Join Point-in-Time and Population Data

# Inner join the pills and population data and the PIT count data into the same dataframe
pills_pit_population_2010 <- pills_population_coc_2010 %>%
  inner_join(pit_coc_2010, by="coc_code") 

Assess Homeless Rates by CoC

# Calculate overall homeless rate by CoC and arrange descending
pills_pit_population_2010 %>%
  mutate(homeless_rate = overall_homeless/total_2010_population) %>%
  select(coc_code, overall_homeless, total_2010_population, homeless_rate) %>%
  arrange(desc(homeless_rate))

## # A tibble: 383 x 4
##    coc_code overall_homeless total_2010_population homeless_rate
##    <chr>               <dbl>                 <dbl>         <dbl>
##  1 ga-500               7019                417912       0.0168 
##  2 fl-517               4220                253399       0.0167 
##  3 fl-604               1040                 73070       0.0142 
##  4 ca-614               3829                269637       0.0142 
##  5 ca-509               1202                 87841       0.0137 
##  6 la-503               8725                778615       0.0112 
##  7 dc-500               6539                601723       0.0109 
##  8 ca-522               1355                134623       0.0101 
##  9 fl-519               4527                464697       0.00974
## 10 ca-603               4121                427161       0.00965
## #  with 373 more rows

# Four California CoCs and three from Florida land in the top 10 for overall homeless rate.

# Calculate unsheltered homeless rate by CoC and arrange descending
pills_pit_population_2010 %>%
  mutate(unsheltered_rate = unsheltered_homeless/total_2010_population) %>%
  select(coc_code, unsheltered_homeless, total_2010_population, unsheltered_rate) %>%
  arrange(desc(unsheltered_rate))

## # A tibble: 383 x 4
##    coc_code unsheltered_homeless total_2010_population unsheltered_rate
##    <chr>                   <dbl>                 <dbl>            <dbl>
##  1 fl-517                   4119                253399          0.0163 
##  2 ca-614                   3587                269637          0.0133 
##  3 ca-509                    967                 87841          0.0110 
##  4 fl-604                    716                 73070          0.00980
##  5 la-503                   7385                778615          0.00948
##  6 fl-505                   1791                235865          0.00759
##  7 ca-522                   1000                134623          0.00743
##  8 fl-518                    949                132751          0.00715
##  9 ca-603                   2973                427161          0.00696
## 10 fl-519                   2853                464697          0.00614
## #  with 373 more rows

# Florida is popular once again for unsheltered homeless rate, appearing five times in the top 10 CoCs for this rate. California appears four times.

# Calculate sheltered homeless rate by CoC and arrange descending
pills_pit_population_2010 %>%
  mutate(sheltered_rate = sheltered_total_homeless/total_2010_population) %>%
  select(coc_code, coc_name.x, sheltered_total_homeless, total_2010_population, sheltered_rate) %>%
  arrange(desc(sheltered_rate))

## # A tibble: 383 x 5
##    coc_code coc_name.x    sheltered_total_ total_2010_popu sheltered_rate
##    <chr>    <chr>                     <dbl>            <dbl>          <dbl>
##  1 ga-500   atlanta coc                4855           417912        0.0116 
##  2 dc-500   district of               6109           601723        0.0102 
##  3 ma-500   boston coc                 4884           617594        0.00791
##  4 ny-600   new york cit             50076          8189382        0.00611
##  5 ny-607   sullivan cou               394            77547        0.00508
##  6 ma-502   lynn coc                    439            90329        0.00486
##  7 ky-502   lexington-fa              1435           295803        0.00485
##  8 ma-509   cambridge coc               489           105162        0.00465
##  9 ca-606   long beach c              2154           467654        0.00461
## 10 ma-508   lowell coc                  485           106519        0.00455
## #  with 373 more rows

# New states emerge when looking at the sheltered rates. Massachusetts appears four times in the top 10 for CoCs with the highest sheltered rates per total population, and New York appears twice.

# Philadelphia has a high unsheltered population, ranking 14th out of 383 CoCs in 2010 with a rate of .00367.

# Calculate sheltered homeless rate by CoC and arrange ascending
pills_pit_population_2010 %>%
  mutate(sheltered_rate = sheltered_total_homeless/total_2010_population) %>%
  select(coc_code, sheltered_total_homeless, total_2010_population, sheltered_rate) %>%
  arrange(sheltered_rate)

## # A tibble: 383 x 4
##    coc_code sheltered_total_homeless total_2010_population sheltered_rate
##    <chr>                       <dbl>                 <dbl>          <dbl>
##  1 ny-520                          5                 90969      0.0000550
##  2 md-510                          4                 30097      0.000133 
##  3 tn-503                        159               1061373      0.000150 
##  4 ar-505                         51                319603      0.000160 
##  5 ms-503                         89                473357      0.000188 
##  6 mn-511                         61                282261      0.000216 
##  7 ar-512                         24                103399      0.000232 
##  8 ut-504                        163                572543      0.000285 
##  9 ny-606                         89                311687      0.000286 
## 10 ny-513                         75                262302      0.000286 
## #  with 373 more rows

# When looking at sheltered rates from lowest to highest, three New York CoCs and two Arkansas CoCs appear in the bottom 10. It's interesting that New York CoCs appear relatively frequently in both the top and bottom 10 sheltered rates.

Assess Percentage of Sheltered Homeless by CoC

# Calculate rate of sheltered homeless by dividing sheltered by overall homeless count
pills_pit_population_2010 %>% 
  mutate(sheltered_percent = sheltered_total_homeless/overall_homeless * 100) %>%
  select(coc_code, sheltered_percent) %>%
  arrange(desc(sheltered_percent))

## # A tibble: 383 x 2
##    coc_code sheltered_percent
##    <chr>                <dbl>
##  1 ar-505               100  
##  2 il-519               100  
##  3 nj-512               100  
##  4 ny-513               100  
##  5 il-500                99.5
##  6 ny-500                99.4
##  7 mi-519                99.3
##  8 il-503                99.3
##  9 ny-522                99.2
## 10 il-513                99.0
## #  with 373 more rows

# I was curious to see rates of sheltered homelessness out of the overall homeless population in a CoC, instead of just comparing the sheltered population to a CoCs total population. It's interesting that four places had 100 percent of their homeless in shelters. Is that a testament to their shelter capacity and ability to get people off the streets, or do they simply only survey shelters when conducting their PIT counts?

Calculate Sheltered Homeless Rate and Pills Per Person Together for Each CoC

# With all necessary data in the same frame, calculate pills per person and total sheltered homeless rate per CoC in 2010, store as new object and arrange descending

shelter_population <- pills_pit_population_2010 %>%
  mutate(pills_per_person = (total_pills_2010/total_2010_population)) %>%
  mutate(shelter_rate = (sheltered_total_homeless/total_2010_population)) %>%
  select(coc_code, total_pills_2010, total_2010_population, pills_per_person, shelter_rate, sheltered_total_homeless) %>%
  arrange(desc(shelter_rate)) %>%
  print(shelter_population)

## # A tibble: 383 x 6
##    coc_code total_pills_2010 total_2010_popu pills_per_person shelter_rate
##    <chr>               <dbl>            <dbl>            <dbl>        <dbl>
##  1 ga-500            9225380           417912             22.1      0.0116 
##  2 dc-500            8745500           601723             14.5      0.0102 
##  3 ma-500           12438470           617594             20.1      0.00791
##  4 ny-600          129336231          8189382             15.8      0.00611
##  5 ny-607            4218610            77547             54.4      0.00508
##  6 ma-502            2592090            90329             28.7      0.00486
##  7 ky-502           12014520           295803             40.6      0.00485
##  8 ma-509            1712690           105162             16.3      0.00465
##  9 ca-606           11325020           467654             24.2      0.00461
## 10 ma-508            2124440           106519             19.9      0.00455
## #  with 373 more rows, and 1 more variable:
## #   sheltered_total_homeless <dbl>
…
